{
	"info": {
		"_postman_id": "96374604-66f3-4229-99d2-bb52f9b18de2",
		"name": "doctorwebapiexample",
		"schema": "https://schema.getpostman.com/json/collection/v2.1.0/collection.json",
		"_exporter_id": "7982215"
	},
	"item": [
		{
			"name": "localhost:8000/api/users",
			"request": {
				"method": "GET",
				"header": [],
				"url": {
					"raw": "localhost:8000/api/users",
					"host": [
						"localhost"
					],
					"port": "8000",
					"path": [
						"api",
						"users"
					]
				}
			},
			"response": []
		},
		{
			"name": "localhost:8000/api/user",
			"request": {
				"method": "POST",
				"header": [],
				"body": {
					"mode": "raw",
					"raw": "   {\r\n            \"name\": \"amirul islam\",\r\n            \"email\": \"amirul@yopmail.com\",\r\n            \"password\": \"123456\"\r\n        }",
					"options": {
						"raw": {
							"language": "json"
						}
					}
				},
				"url": {
					"raw": "localhost:8000/api/user",
					"host": [
						"localhost"
					],
					"port": "8000",
					"path": [
						"api",
						"user"
					]
				}
			},
			"response": []
		},
		{
			"name": "localhost:8000/api/user/4",
			"request": {
				"method": "DELETE",
				"header": [],
				"url": {
					"raw": "localhost:8000/api/user/4",
					"host": [
						"localhost"
					],
					"port": "8000",
					"path": [
						"api",
						"user",
						"4"
					]
				}
			},
			"response": []
		},
		{
			"name": "localhost:8000/api/user/1",
			"request": {
				"method": "PATCH",
				"header": [],
				"body": {
					"mode": "raw",
					"raw": "{\r\n    \r\n        \"email\": \"jahurul@yopmail.com\"\r\n    }",
					"options": {
						"raw": {
							"language": "json"
						}
					}
				},
				"url": {
					"raw": "localhost:8000/api/user/1",
					"host": [
						"localhost"
					],
					"port": "8000",
					"path": [
						"api",
						"user",
						"1"
					]
				}
			},
			"response": []
		},
		{
			"name": "localhost:8000/api/user/2",
			"request": {
				"method": "GET",
				"header": [],
				"url": {
					"raw": "localhost:8000/api/user/2",
					"host": [
						"localhost"
					],
					"port": "8000",
					"path": [
						"api",
						"user",
						"2"
					]
				}
			},
			"response": []
		}
	]
}